redis rdb
2021/09/10 22:31:45 current rate: 34559
2021/09/10 22:31:46 current rate: 34851
2021/09/10 22:31:47 current rate: 34591
2021/09/10 22:31:48 current rate: 34876
2021/09/10 22:31:49 current rate: 34378
2021/09/10 22:31:50 current rate: 34252

redis aof
2021/09/10 22:32:38 current rate: 34440
2021/09/10 22:32:39 current rate: 34336
2021/09/10 22:32:40 current rate: 34613
2021/09/10 22:32:41 current rate: 34381
2021/09/10 22:32:42 current rate: 34657
2021/09/10 22:32:43 current rate: 34400

beanstalkd
2021/09/10 22:24:22 current rate: 7753
2021/09/10 22:24:23 current rate: 7950
2021/09/10 22:24:24 current rate: 7564
2021/09/10 22:24:25 current rate: 7692
2021/09/10 22:24:26 current rate: 7901
2021/09/10 22:24:27 current rate: 7880
2021/09/10 22:24:28 current rate: 8037
2021/09/10 22:24:29 current rate: 7721
2021/09/10 22:24:30 current rate: 7047
